%YAML 1.1
%TAG !u! tag:unity3d.com,2011:
--- !u!114 &11400000
MonoBehaviour:
  m_ObjectHideFlags: 0
  m_CorrespondingSourceObject: {fileID: 0}
  m_PrefabInstance: {fileID: 0}
  m_PrefabAsset: {fileID: 0}
  m_GameObject: {fileID: 0}
  m_Enabled: 1
  m_EditorHideFlags: 0
  m_Script: {fileID: 11500000, guid: ced4b3db90dff894ebc4a3bb669662cf, type: 3}
  m_Name: Ninja
  m_EditorClassIdentifier: 
  nombre: Ninjini
  vida: 1
  municion: {fileID: 8522443681510257430, guid: 6db82f289cbb4524f9e931c046fcafce, type: 3}
  shootSpd: 0.75
  tipo: ninja
  dmg: 3
  punt: 30
