%YAML 1.1
%TAG !u! tag:unity3d.com,2011:
--- !u!1045 &1
EditorBuildSettings:
  m_ObjectHideFlags: 0
  serializedVersion: 2
  m_Scenes:
  - enabled: 1
    path: Assets/mis assets/Scenes/Intro.unity
    guid: bdcc630e822912441909d3e09219acbc
  - enabled: 1
    path: Assets/mis assets/Scenes/main menu.unity
    guid: c495375694742b149a25987dfb4a733b
  - enabled: 1
    path: Assets/mis assets/Scenes/creditos.unity
    guid: 4dbe970abfb7df84686c4fe84af1acdf
  - enabled: 1
    path: Assets/mis assets/Scenes/Game.unity
    guid: 3fc8acdd13e6c734bafef6554d6fdbcd
  - enabled: 1
    path: Assets/mis assets/Scenes/game over.unity
    guid: fc13dcc4473351347b6231d9f54d3e23
  - enabled: 1
    path: Assets/mis assets/Scenes/victoria.unity
    guid: ea40ee5465def9f4d916da7035b37a92
  - enabled: 1
    path: Assets/mis assets/Scenes/Lore.unity
    guid: 1b7768cb828fda24884543c4daec6ad5
  m_configObjects:
    com.unity.adaptiveperformance.google.android.provider_settings: {fileID: 11400000, guid: 3cdde4689a3b7c14fb2b703861ea1d56, type: 2}
    com.unity.adaptiveperformance.loader_settings: {fileID: 11400000, guid: 439b973cb6d276a47a63d317913eed53, type: 2}
    com.unity.adaptiveperformance.samsung.android.provider_settings: {fileID: 11400000, guid: 9956a1afd542a544a86e1295978d0da6, type: 2}
    com.unity.adaptiveperformance.simulator.provider_settings: {fileID: 11400000, guid: f560f192a87bc0f439f9b0ece6ad00a5, type: 2}
